%YAML 1.1
%TAG !u! tag:unity3d.com,2011:
--- !u!74 &7400000
AnimationClip:
  m_ObjectHideFlags: 0
  m_CorrespondingSourceObject: {fileID: 0}
  m_PrefabInstance: {fileID: 0}
  m_PrefabAsset: {fileID: 0}
  m_Name: Idle
  serializedVersion: 6
  m_Legacy: 0
  m_Compressed: 0
  m_UseHighQualityCurve: 1
  m_RotationCurves: []
  m_CompressedRotationCurves: []
  m_EulerCurves: []
  m_PositionCurves: []
  m_ScaleCurves: []
  m_FloatCurves: []
  m_PPtrCurves:
  - curve:
    - time: 0
      value: {fileID: 21300000, guid: ef532ca76ff67de42b9b9cceea071d0a, type: 3}
    - time: 0.083333336
      value: {fileID: 21300000, guid: 7cdc7227f180e6b4f9f62e4cd3c705d8, type: 3}
    - time: 0.16666667
      value: {fileID: 21300000, guid: f26775f0257f62e4eab5fb2aae9581e9, type: 3}
    - time: 0.25
      value: {fileID: 21300000, guid: e882852fef7740143ada1fd11e90194e, type: 3}
    - time: 0.33333334
      value: {fileID: 21300000, guid: dd366ddc2372e27428cf4e9ada2ccfb2, type: 3}
    - time: 0.41666666
      value: {fileID: 21300000, guid: 3c3f2f7563f14f94b98ff0e5acb524cf, type: 3}
    - time: 0.5
      value: {fileID: 21300000, guid: bb0b7fb027e7368439038b9b8b1c8863, type: 3}
    - time: 0.5833333
      value: {fileID: 21300000, guid: f449cd086b3036a438f5064ef81d2d9e, type: 3}
    - time: 0.6666667
      value: {fileID: 21300000, guid: ad77a0469f7f05f428e22639e785b8e3, type: 3}
    - time: 0.75
      value: {fileID: 21300000, guid: dd2ab66b035f2c644ad74a645e2d5e2e, type: 3}
    attribute: m_Sprite
    path: 
    classID: 212
    script: {fileID: 0}
  m_SampleRate: 12
  m_WrapMode: 0
  m_Bounds:
    m_Center: {x: 0, y: 0, z: 0}
    m_Extent: {x: 0, y: 0, z: 0}
  m_ClipBindingConstant:
    genericBindings:
    - serializedVersion: 2
      path: 0
      attribute: 0
      script: {fileID: 0}
      typeID: 212
      customType: 23
      isPPtrCurve: 1
    pptrCurveMapping:
    - {fileID: 21300000, guid: ef532ca76ff67de42b9b9cceea071d0a, type: 3}
    - {fileID: 21300000, guid: 7cdc7227f180e6b4f9f62e4cd3c705d8, type: 3}
    - {fileID: 21300000, guid: f26775f0257f62e4eab5fb2aae9581e9, type: 3}
    - {fileID: 21300000, guid: e882852fef7740143ada1fd11e90194e, type: 3}
    - {fileID: 21300000, guid: dd366ddc2372e27428cf4e9ada2ccfb2, type: 3}
    - {fileID: 21300000, guid: 3c3f2f7563f14f94b98ff0e5acb524cf, type: 3}
    - {fileID: 21300000, guid: bb0b7fb027e7368439038b9b8b1c8863, type: 3}
    - {fileID: 21300000, guid: f449cd086b3036a438f5064ef81d2d9e, type: 3}
    - {fileID: 21300000, guid: ad77a0469f7f05f428e22639e785b8e3, type: 3}
    - {fileID: 21300000, guid: dd2ab66b035f2c644ad74a645e2d5e2e, type: 3}
  m_AnimationClipSettings:
    serializedVersion: 2
    m_AdditiveReferencePoseClip: {fileID: 0}
    m_AdditiveReferencePoseTime: 0
    m_StartTime: 0
    m_StopTime: 0.8333333
    m_OrientationOffsetY: 0
    m_Level: 0
    m_CycleOffset: 0
    m_HasAdditiveReferencePose: 0
    m_LoopTime: 1
    m_LoopBlend: 0
    m_LoopBlendOrientation: 0
    m_LoopBlendPositionY: 0
    m_LoopBlendPositionXZ: 0
    m_KeepOriginalOrientation: 0
    m_KeepOriginalPositionY: 1
    m_KeepOriginalPositionXZ: 0
    m_HeightFromFeet: 0
    m_Mirror: 0
  m_EditorCurves: []
  m_EulerEditorCurves: []
  m_HasGenericRootTransform: 0
  m_HasMotionFloatCurves: 0
  m_Events: []
